{
    "timestamp": "2018-01-05 00:42:54",
    "dispositivo": "none",
    "id_usuario": "none",
    "tables": [
        {
            "nombre_tabla": "cargo",
            "num_registros": 0,
            "valores": []
        },
        {
            "nombre_tabla": "cargos",
            "num_registros": 0,
            "valores": [
                {
                    "id": 1,
                    "compania_id": 1,
                    "descripcion": "Administrador",
                    "responsabilidades": "muchas",
                    "status": "1",
                    "created_at": "2018-01-04 22:20:02",
                    "updated_at": "2018-01-04 22:20:02"
                }
            ]
        },
        {
            "nombre_tabla": "comentario_bitacora",
            "num_registros": 0,
            "valores": [
                {
                    "id": 11,
                    "id_bitacora": 12,
                    "id_usuario": 1,
                    "datetime": "2018-01-04 12:37",
                    "comentario": "vhyde",
                    "migrated": 0,
                    "migrated_timestamp": null
                },
                {
                    "id": 12,
                    "id_bitacora": 12,
                    "id_usuario": 1,
                    "datetime": "2018-01-04 12:37",
                    "comentario": "chhff",
                    "migrated": 0,
                    "migrated_timestamp": null
                },
                {
                    "id": 13,
                    "id_bitacora": 11,
                    "id_usuario": 1,
                    "datetime": "2018-01-04 12:37",
                    "comentario": "ccjuu",
                    "migrated": 0,
                    "migrated_timestamp": null
                }
            ]
        },
        {
            "nombre_tabla": "compania",
            "num_registros": 0,
            "valores": []
        },
        {
            "nombre_tabla": "companias",
            "num_registros": 0,
            "valores": [
                {
                    "id": 1,
                    "nombre": "COMPA\u00f1IA MIXTA",
                    "codigo": "5a4ea42b8f460",
                    "ruc": "322545253634",
                    "representante": "JOSUE CARDONA",
                    "status": "1",
                    "created_at": "2018-01-04 22:01:15",
                    "updated_at": "2018-01-04 22:01:15"
                }
            ]
        },
        {
            "nombre_tabla": "controlsalida",
            "num_registros": 0,
            "valores": [
                {
                    "id": 10,
                    "id_usuario": 1,
                    "id_puesto": 1,
                    "orden_trabajo": "yrdffghugf",
                    "comentario": "bkcvbcc",
                    "timestamp": "2018-01-04 12:34:30",
                    "foto": null,
                    "migrated": 0,
                    "migrated_timestamp": null
                },
                {
                    "id": 11,
                    "id_usuario": 1,
                    "id_puesto": 1,
                    "orden_trabajo": "hjgff",
                    "comentario": "vkxvkjx",
                    "timestamp": "2018-01-04 12:34:53",
                    "foto": null,
                    "migrated": 0,
                    "migrated_timestamp": null
                }
            ]
        },
        {
            "nombre_tabla": "dispositivo",
            "num_registros": 0,
            "valores": []
        },
        {
            "nombre_tabla": "dispositivos",
            "num_registros": 0,
            "valores": [
                {
                    "id": 1,
                    "marca": "SIRAGON",
                    "modelo": "m433s",
                    "sistema": "Android 4.4",
                    "serie": "56456456",
                    "created_at": "2018-01-04 22:25:24",
                    "updated_at": "2018-01-04 22:25:24"
                }
            ]
        }
    ]
}