{
    "timestamp": "2018-01-08 17:10:09",
    "dispositivo": "none",
    "id_usuario": "none",
    "tables": [
        {
            "nombre_tabla": "cargo",
            "valores": [
                {
                    "id": 1,
                    "compania_id": 1,
                    "descripcion": "SUPERVISOR",
                    "responsabilidades": "ADMINISTRAR EL SISTEMA",
                    "estado": "1",
                    "created_at": null,
                    "updated_at": null
                },
                {
                    "id": 2,
                    "compania_id": 1,
                    "descripcion": "GUARDIA",
                    "responsabilidades": "",
                    "estado": "1",
                    "created_at": null,
                    "updated_at": null
                },
                {
                    "id": 3,
                    "compania_id": 1,
                    "descripcion": "OBRERO",
                    "responsabilidades": "",
                    "estado": "1",
                    "created_at": null,
                    "updated_at": null
                },
                {
                    "id": 4,
                    "compania_id": 1,
                    "descripcion": "CREW",
                    "responsabilidades": "",
                    "estado": "1",
                    "created_at": null,
                    "updated_at": null
                },
                {
                    "id": 5,
                    "compania_id": 2,
                    "descripcion": "SUPERVISOR",
                    "responsabilidades": "ADMINISTRAR EL SISTEMA",
                    "estado": "1",
                    "created_at": null,
                    "updated_at": null
                },
                {
                    "id": 6,
                    "compania_id": 2,
                    "descripcion": "GUARDIA",
                    "responsabilidades": "Prestar servicios de seguridad y vigilanca",
                    "estado": "1",
                    "created_at": null,
                    "updated_at": "2018-01-07 16:30:56"
                },
                {
                    "id": 7,
                    "compania_id": 2,
                    "descripcion": "OBRERO",
                    "responsabilidades": "",
                    "estado": "1",
                    "created_at": null,
                    "updated_at": null
                },
                {
                    "id": 8,
                    "compania_id": 2,
                    "descripcion": "CREW",
                    "responsabilidades": "",
                    "estado": "1",
                    "created_at": null,
                    "updated_at": null
                },
                {
                    "id": 9,
                    "compania_id": 1,
                    "descripcion": "SECRETARIA",
                    "responsabilidades": "varias",
                    "estado": "1",
                    "created_at": "2018-01-07 17:06:46",
                    "updated_at": "2018-01-07 17:06:46"
                }
            ]
        },
        {
            "nombre_tabla": "compania",
            "valores": [
                {
                    "id": 1,
                    "nombre": "Compa\u00f1ia de prueba 1",
                    "codigo": "C001",
                    "ruc": "123456789",
                    "representante": "Nombre representante",
                    "estado": "1",
                    "created_at": null,
                    "updated_at": null
                },
                {
                    "id": 2,
                    "nombre": "Compa\u00f1ia de prueba 2",
                    "codigo": "C002",
                    "ruc": "1234567",
                    "representante": "Nombre representante",
                    "estado": "1",
                    "created_at": null,
                    "updated_at": null
                }
            ]
        },
        {
            "nombre_tabla": "dispositivo",
            "valores": [
                {
                    "id": 1,
                    "suministro_id": 1,
                    "marca": "ZTE",
                    "modelo": "Blade L2",
                    "sistema": "Android 4.4",
                    "serie": "14defe8d3e4e54f3",
                    "created_at": "2018-01-07 16:50:46",
                    "updated_at": "2018-01-07 16:50:46"
                }
            ]
        },
        {
            "nombre_tabla": "modulo",
            "valores": [
                {
                    "id": 1,
                    "codigo": "OP001",
                    "descripcion": "CONTROL DE RADIOS",
                    "estado": 1,
                    "created_at": null,
                    "updated_at": null
                },
                {
                    "id": 2,
                    "codigo": "OP002",
                    "descripcion": "CONTROL DE AZUCAR",
                    "estado": 1,
                    "created_at": null,
                    "updated_at": null
                },
                {
                    "id": 3,
                    "codigo": "OP003",
                    "descripcion": "BITACORA DIGITAL",
                    "estado": 1,
                    "created_at": null,
                    "updated_at": null
                },
                {
                    "id": 4,
                    "codigo": "OP004",
                    "descripcion": "INFORME ESPECIAL",
                    "estado": 1,
                    "created_at": null,
                    "updated_at": null
                },
                {
                    "id": 5,
                    "codigo": "OP005",
                    "descripcion": "RELEVO DE GUARDIAS",
                    "estado": 1,
                    "created_at": null,
                    "updated_at": null
                },
                {
                    "id": 6,
                    "codigo": "OP006",
                    "descripcion": "REGISTRO DE USUARIOS",
                    "estado": 1,
                    "created_at": null,
                    "updated_at": null
                },
                {
                    "id": 7,
                    "codigo": "OP007",
                    "descripcion": "CAMBIO DE CLAVE",
                    "estado": 1,
                    "created_at": null,
                    "updated_at": null
                },
                {
                    "id": 8,
                    "codigo": "OP008",
                    "descripcion": "SESIONES DE USUARIOS",
                    "estado": 1,
                    "created_at": null,
                    "updated_at": null
                }
            ]
        },
        {
            "nombre_tabla": "modulousuario",
            "valores": [
                {
                    "id": 1,
                    "modulo_id": 1,
                    "usuario_id": 1,
                    "migrated": 0,
                    "migrated_timestamp": null,
                    "created_at": null,
                    "updated_at": null
                },
                {
                    "id": 2,
                    "modulo_id": 2,
                    "usuario_id": 1,
                    "migrated": 0,
                    "migrated_timestamp": null,
                    "created_at": null,
                    "updated_at": null
                },
                {
                    "id": 3,
                    "modulo_id": 3,
                    "usuario_id": 1,
                    "migrated": 0,
                    "migrated_timestamp": null,
                    "created_at": null,
                    "updated_at": null
                },
                {
                    "id": 4,
                    "modulo_id": 4,
                    "usuario_id": 1,
                    "migrated": 0,
                    "migrated_timestamp": null,
                    "created_at": null,
                    "updated_at": null
                },
                {
                    "id": 5,
                    "modulo_id": 5,
                    "usuario_id": 1,
                    "migrated": 0,
                    "migrated_timestamp": null,
                    "created_at": null,
                    "updated_at": null
                },
                {
                    "id": 6,
                    "modulo_id": 6,
                    "usuario_id": 1,
                    "migrated": 0,
                    "migrated_timestamp": null,
                    "created_at": null,
                    "updated_at": null
                },
                {
                    "id": 7,
                    "modulo_id": 1,
                    "usuario_id": 2,
                    "migrated": 0,
                    "migrated_timestamp": null,
                    "created_at": null,
                    "updated_at": null
                },
                {
                    "id": 8,
                    "modulo_id": 2,
                    "usuario_id": 2,
                    "migrated": 0,
                    "migrated_timestamp": null,
                    "created_at": null,
                    "updated_at": null
                },
                {
                    "id": 9,
                    "modulo_id": 3,
                    "usuario_id": 2,
                    "migrated": 0,
                    "migrated_timestamp": null,
                    "created_at": null,
                    "updated_at": null
                },
                {
                    "id": 10,
                    "modulo_id": 4,
                    "usuario_id": 2,
                    "migrated": 0,
                    "migrated_timestamp": null,
                    "created_at": null,
                    "updated_at": null
                },
                {
                    "id": 11,
                    "modulo_id": 5,
                    "usuario_id": 2,
                    "migrated": 0,
                    "migrated_timestamp": null,
                    "created_at": null,
                    "updated_at": null
                }
            ]
        },
        {
            "nombre_tabla": "puesto",
            "valores": [
                {
                    "id": 1,
                    "nombre": "Puesto de prueba 1",
                    "descripcion": "descripcion aqui",
                    "nominativo": "nominativo 1 aqui",
                    "compania_id": 1,
                    "estado": "1",
                    "created_at": null,
                    "updated_at": null
                },
                {
                    "id": 2,
                    "nombre": "Puesto de prueba 2",
                    "descripcion": "descripcion aqui",
                    "nominativo": "nominativo 2 aqui",
                    "compania_id": 1,
                    "estado": "1",
                    "created_at": null,
                    "updated_at": null
                },
                {
                    "id": 3,
                    "nombre": "Puesto de prueba 3",
                    "descripcion": "descripcion aqui",
                    "nominativo": "nominativo 3 aqui",
                    "compania_id": 2,
                    "estado": "1",
                    "created_at": null,
                    "updated_at": null
                },
                {
                    "id": 4,
                    "nombre": "PUESTO DE PRUEBA 4",
                    "descripcion": "descripcion aqui ok",
                    "nominativo": "NOMINATIVO 4 AQUI OK",
                    "compania_id": 2,
                    "estado": "1",
                    "created_at": null,
                    "updated_at": "2018-01-07 17:08:26"
                },
                {
                    "id": 5,
                    "nombre": "PUESTO 5",
                    "descripcion": "descripcion de puesto 5",
                    "nominativo": "NOMINATIVO PUESTO 5",
                    "compania_id": 1,
                    "estado": "1",
                    "created_at": "2018-01-07 17:07:55",
                    "updated_at": "2018-01-07 17:07:55"
                },
                {
                    "id": 24,
                    "nombre": "NAAAUUUA",
                    "descripcion": "UUSUSUSUU",
                    "nominativo": "USUSUSUSU",
                    "compania_id": 2,
                    "estado": "1",
                    "created_at": "2018-01-08 02:51:08",
                    "updated_at": "2018-01-08 02:51:08"
                },
                {
                    "id": 25,
                    "nombre": "NAAAUUUAJKJ",
                    "descripcion": "yyooyottit",
                    "nominativo": "FFJHHHJGJG",
                    "compania_id": 2,
                    "estado": "1",
                    "created_at": "2018-01-08 04:22:36",
                    "updated_at": "2018-01-08 04:22:36"
                },
                {
                    "id": 26,
                    "nombre": "NKJN",
                    "descripcion": "lkjlkl",
                    "nominativo": "JHGH",
                    "compania_id": 1,
                    "estado": "1",
                    "created_at": "2013-01-01 04:35:30",
                    "updated_at": "2013-01-01 04:35:30"
                },
                {
                    "id": 27,
                    "nombre": "QWQW",
                    "descripcion": "wqewred",
                    "nominativo": "QWEWRERGFD",
                    "compania_id": 1,
                    "estado": "1",
                    "created_at": "2018-01-08 13:48:29",
                    "updated_at": "2018-01-08 13:48:29"
                }
            ]
        },
        {
            "nombre_tabla": "puesto_suministro",
            "valores": [
                {
                    "id": 4,
                    "suministro_id": 1,
                    "puesto_id": 24,
                    "cantidad": 2,
                    "created_at": null,
                    "updated_at": null
                },
                {
                    "id": 5,
                    "suministro_id": 1,
                    "puesto_id": 1,
                    "cantidad": 2,
                    "created_at": null,
                    "updated_at": null
                }
            ]
        },
        {
            "nombre_tabla": "rol",
            "valores": [
                {
                    "id": 1,
                    "descripcion": "ADMINISTRADOR",
                    "responsabilidades": "ADMINISTRAR EL SISTEMA",
                    "ver": 1,
                    "registrar": 1,
                    "editar": 1,
                    "borrar": 1,
                    "estado": "1",
                    "created_at": null,
                    "updated_at": null
                },
                {
                    "id": 2,
                    "descripcion": "USUARIO",
                    "responsabilidades": "",
                    "ver": 1,
                    "registrar": 1,
                    "editar": 1,
                    "borrar": 0,
                    "estado": "1",
                    "created_at": null,
                    "updated_at": null
                },
                {
                    "id": 3,
                    "descripcion": "VISITANTE",
                    "responsabilidades": "",
                    "ver": 1,
                    "registrar": 0,
                    "editar": 0,
                    "borrar": 0,
                    "estado": "1",
                    "created_at": null,
                    "updated_at": null
                },
                {
                    "id": 5,
                    "descripcion": "ROL NUEVO",
                    "responsabilidades": "NO SE",
                    "ver": 1,
                    "registrar": 1,
                    "editar": 1,
                    "borrar": 0,
                    "estado": "1",
                    "created_at": "2018-01-07 09:14:11",
                    "updated_at": "2018-01-07 16:08:24"
                }
            ]
        },
        {
            "nombre_tabla": "session",
            "valores": []
        },
        {
            "nombre_tabla": "suministro",
            "valores": [
                {
                    "id": 1,
                    "codigo": "D001",
                    "descripcion": "Telefono zte",
                    "serial": "1153100101500488",
                    "estado": "1",
                    "created_at": "2018-01-07 16:50:46",
                    "updated_at": "2018-01-07 16:50:46"
                }
            ]
        }
    ]
}