{
    "timestamp": "2018-01-17 16:31:51",
    "dispositivo": "none",
    "id_usuario": "none",
    "tables": [
        {
            "nombre_tabla": "cargo",
            "valores": [
                {
                    "id": "1",
                    "compania_id": "1",
                    "descripcion": "SUPERVISOR",
                    "responsabilidades": "ADMINISTRAR EL SISTEMA",
                    "estado": "1",
                    "created_at": null,
                    "updated_at": null
                },
                {
                    "id": "2",
                    "compania_id": "1",
                    "descripcion": "GUARDIA",
                    "responsabilidades": "SA",
                    "estado": "1",
                    "created_at": null,
                    "updated_at": "2018-01-17 15:56:36"
                },
                {
                    "id": "3",
                    "compania_id": "1",
                    "descripcion": "OBRERO",
                    "responsabilidades": "",
                    "estado": "1",
                    "created_at": null,
                    "updated_at": null
                },
                {
                    "id": "4",
                    "compania_id": "1",
                    "descripcion": "CREW",
                    "responsabilidades": "",
                    "estado": "1",
                    "created_at": null,
                    "updated_at": null
                },
                {
                    "id": "5",
                    "compania_id": "2",
                    "descripcion": "SUPERVISOR",
                    "responsabilidades": "ADMINISTRAR EL SISTEMA",
                    "estado": "1",
                    "created_at": null,
                    "updated_at": null
                },
                {
                    "id": "6",
                    "compania_id": "2",
                    "descripcion": "GUARDIA",
                    "responsabilidades": "",
                    "estado": "1",
                    "created_at": null,
                    "updated_at": null
                },
                {
                    "id": "7",
                    "compania_id": "2",
                    "descripcion": "OBRERO",
                    "responsabilidades": "",
                    "estado": "1",
                    "created_at": null,
                    "updated_at": null
                },
                {
                    "id": "8",
                    "compania_id": "2",
                    "descripcion": "CREW",
                    "responsabilidades": "",
                    "estado": "1",
                    "created_at": null,
                    "updated_at": null
                }
            ]
        },
        {
            "nombre_tabla": "compania",
            "valores": [
                {
                    "id": "1",
                    "nombre": "LA GAVIOTA",
                    "codigo": "C001",
                    "ruc": "1234567899",
                    "representante": "RAMON MUCHACHO",
                    "estado": "1",
                    "created_at": null,
                    "updated_at": "2018-01-17 15:34:38"
                },
                {
                    "id": "2",
                    "nombre": "Compa\u00f1ia de prueba 2",
                    "codigo": "C002",
                    "ruc": "1234567",
                    "representante": "Nombre representante",
                    "estado": "1",
                    "created_at": null,
                    "updated_at": null
                },
                {
                    "id": "3",
                    "nombre": "C003",
                    "codigo": "5a5f6db1060c6",
                    "ruc": "2376283863",
                    "representante": "MANUEL PARRAGA",
                    "estado": "1",
                    "created_at": "2018-01-17 15:37:21",
                    "updated_at": "2018-01-17 15:37:21"
                },
                {
                    "id": "4",
                    "nombre": "REFINADORA MANUEL",
                    "codigo": "5a5f703b1b4fe",
                    "ruc": "2335332533",
                    "representante": "JUAN ARIAS",
                    "estado": "1",
                    "created_at": "2018-01-17 15:48:11",
                    "updated_at": "2018-01-17 15:48:11"
                }
            ]
        },
        {
            "nombre_tabla": "dispositivo",
            "valores": [
                {
                    "id": "1",
                    "suministro_id": "1",
                    "marca": "ZTE",
                    "modelo": "Blade L2",
                    "sistema": "Android 4.4",
                    "serie": "14defe8d3e4e54f3",
                    "created_at": null,
                    "updated_at": null
                },
                {
                    "id": "2",
                    "suministro_id": "2",
                    "marca": "SAMSUNG",
                    "modelo": "GALAXY",
                    "sistema": "Android 4.0",
                    "serie": "13c9e36a0001cf5a",
                    "created_at": null,
                    "updated_at": null
                },
                {
                    "id": "3",
                    "suministro_id": "3",
                    "marca": "ZTE",
                    "modelo": "ZTE E10Q",
                    "sistema": "Android 4.4.2(API 19)",
                    "serie": "193ce40f51d2c14f",
                    "created_at": null,
                    "updated_at": null
                },
                {
                    "id": "4",
                    "suministro_id": "4",
                    "marca": "Desconocida",
                    "modelo": "Desconocido",
                    "sistema": "Desconocido",
                    "serie": "55c99e27d26f01cd",
                    "created_at": null,
                    "updated_at": null
                },
                {
                    "id": "5",
                    "suministro_id": "5",
                    "marca": "SAMSUMG",
                    "modelo": "SM-T285M",
                    "sistema": "5.1.1",
                    "serie": "3CB8A2BA88070471",
                    "created_at": "2018-01-17 16:17:14",
                    "updated_at": "2018-01-17 16:28:07"
                }
            ]
        },
        {
            "nombre_tabla": "modulo",
            "valores": [
                {
                    "id": "1",
                    "codigo": "OP001",
                    "descripcion": "CONTROL DE RADIOS",
                    "estado": "1",
                    "created_at": null,
                    "updated_at": null
                },
                {
                    "id": "2",
                    "codigo": "OP002",
                    "descripcion": "CONTROL DE AZUCAR",
                    "estado": "1",
                    "created_at": null,
                    "updated_at": null
                },
                {
                    "id": "3",
                    "codigo": "OP003",
                    "descripcion": "BITACORA DIGITAL",
                    "estado": "1",
                    "created_at": null,
                    "updated_at": null
                },
                {
                    "id": "4",
                    "codigo": "OP004",
                    "descripcion": "INFORME ESPECIAL",
                    "estado": "1",
                    "created_at": null,
                    "updated_at": null
                },
                {
                    "id": "5",
                    "codigo": "OP005",
                    "descripcion": "RELEVO DE GUARDIAS",
                    "estado": "1",
                    "created_at": null,
                    "updated_at": null
                },
                {
                    "id": "6",
                    "codigo": "OP006",
                    "descripcion": "REGISTRO DE USUARIOS",
                    "estado": "0",
                    "created_at": null,
                    "updated_at": null
                },
                {
                    "id": "7",
                    "codigo": "OP007",
                    "descripcion": "CAMBIO DE CLAVE",
                    "estado": "0",
                    "created_at": null,
                    "updated_at": null
                },
                {
                    "id": "8",
                    "codigo": "OP008",
                    "descripcion": "ASISTENCIAS DE EMPLEADOS",
                    "estado": "1",
                    "created_at": null,
                    "updated_at": null
                },
                {
                    "id": "9",
                    "codigo": "OP009",
                    "descripcion": "SESIONES DE USUARIOS",
                    "estado": "1",
                    "created_at": null,
                    "updated_at": null
                },
                {
                    "id": "10",
                    "codigo": "OP010",
                    "descripcion": "ASOCIAR ROSTRO",
                    "estado": "1",
                    "created_at": null,
                    "updated_at": null
                }
            ]
        },
        {
            "nombre_tabla": "modulousuario",
            "valores": [
                {
                    "id": "1",
                    "modulo_id": "1",
                    "usuario_id": "1",
                    "created_at": null,
                    "updated_at": null
                },
                {
                    "id": "2",
                    "modulo_id": "2",
                    "usuario_id": "1",
                    "created_at": null,
                    "updated_at": null
                },
                {
                    "id": "3",
                    "modulo_id": "3",
                    "usuario_id": "1",
                    "created_at": null,
                    "updated_at": null
                },
                {
                    "id": "4",
                    "modulo_id": "4",
                    "usuario_id": "1",
                    "created_at": null,
                    "updated_at": null
                },
                {
                    "id": "5",
                    "modulo_id": "5",
                    "usuario_id": "1",
                    "created_at": null,
                    "updated_at": null
                },
                {
                    "id": "6",
                    "modulo_id": "6",
                    "usuario_id": "1",
                    "created_at": null,
                    "updated_at": null
                },
                {
                    "id": "7",
                    "modulo_id": "7",
                    "usuario_id": "1",
                    "created_at": null,
                    "updated_at": null
                },
                {
                    "id": "8",
                    "modulo_id": "8",
                    "usuario_id": "1",
                    "created_at": null,
                    "updated_at": null
                },
                {
                    "id": "9",
                    "modulo_id": "9",
                    "usuario_id": "1",
                    "created_at": null,
                    "updated_at": null
                },
                {
                    "id": "10",
                    "modulo_id": "10",
                    "usuario_id": "1",
                    "created_at": null,
                    "updated_at": null
                },
                {
                    "id": "11",
                    "modulo_id": "1",
                    "usuario_id": "2",
                    "created_at": null,
                    "updated_at": null
                },
                {
                    "id": "12",
                    "modulo_id": "2",
                    "usuario_id": "2",
                    "created_at": null,
                    "updated_at": null
                },
                {
                    "id": "13",
                    "modulo_id": "3",
                    "usuario_id": "2",
                    "created_at": null,
                    "updated_at": null
                },
                {
                    "id": "14",
                    "modulo_id": "4",
                    "usuario_id": "2",
                    "created_at": null,
                    "updated_at": null
                },
                {
                    "id": "15",
                    "modulo_id": "5",
                    "usuario_id": "2",
                    "created_at": null,
                    "updated_at": null
                },
                {
                    "id": "16",
                    "modulo_id": "6",
                    "usuario_id": "2",
                    "created_at": null,
                    "updated_at": null
                },
                {
                    "id": "17",
                    "modulo_id": "1",
                    "usuario_id": "3",
                    "created_at": null,
                    "updated_at": null
                },
                {
                    "id": "18",
                    "modulo_id": "2",
                    "usuario_id": "3",
                    "created_at": null,
                    "updated_at": null
                },
                {
                    "id": "19",
                    "modulo_id": "3",
                    "usuario_id": "3",
                    "created_at": null,
                    "updated_at": null
                },
                {
                    "id": "20",
                    "modulo_id": "4",
                    "usuario_id": "3",
                    "created_at": null,
                    "updated_at": null
                },
                {
                    "id": "21",
                    "modulo_id": "5",
                    "usuario_id": "3",
                    "created_at": null,
                    "updated_at": null
                }
            ]
        },
        {
            "nombre_tabla": "puesto",
            "valores": [
                {
                    "id": "1",
                    "nombre": "ENTRADA PRINCIPAL",
                    "descripcion": "PUESTO DE COMANDANCIA PRINCIPAL",
                    "nominativo": "AGUILA 4",
                    "compania_id": "1",
                    "estado": "1",
                    "created_at": null,
                    "updated_at": "2018-01-17 15:51:16"
                },
                {
                    "id": "2",
                    "nombre": "PUESTO DE PRUEBA 2",
                    "descripcion": "DESCRIPCION AQUI",
                    "nominativo": "NOMINATIVO 2 AQUI",
                    "compania_id": "1",
                    "estado": "1",
                    "created_at": null,
                    "updated_at": "2018-01-17 15:53:08"
                },
                {
                    "id": "3",
                    "nombre": "Puesto de prueba 3",
                    "descripcion": "descripcion aqui",
                    "nominativo": "nominativo 3 aqui",
                    "compania_id": "2",
                    "estado": "1",
                    "created_at": null,
                    "updated_at": null
                },
                {
                    "id": "4",
                    "nombre": "Puesto de prueba 4",
                    "descripcion": "descripcion aqui",
                    "nominativo": "nominativo 4 aqui",
                    "compania_id": "2",
                    "estado": "1",
                    "created_at": null,
                    "updated_at": null
                },
                {
                    "id": "5",
                    "nombre": "PLAZA SAN CARLOS",
                    "descripcion": "ENTRADA PRINCIPAL",
                    "nominativo": "PSCEP",
                    "compania_id": "3",
                    "estado": "1",
                    "created_at": "2018-01-17 16:31:06",
                    "updated_at": "2018-01-17 16:31:06"
                }
            ]
        },
        {
            "nombre_tabla": "puesto_suministro",
            "valores": [
                {
                    "id": "5",
                    "suministro_id": "1",
                    "puesto_id": "2",
                    "cantidad": "1",
                    "created_at": "2018-01-17 15:53:08",
                    "updated_at": "2018-01-17 15:53:08"
                },
                {
                    "id": "7",
                    "suministro_id": "5",
                    "puesto_id": "5",
                    "cantidad": "1",
                    "created_at": "2018-01-17 16:31:29",
                    "updated_at": "2018-01-17 16:31:29"
                }
            ]
        },
        {
            "nombre_tabla": "rol",
            "valores": [
                {
                    "id": "1",
                    "descripcion": "ADMINISTRADOR",
                    "responsabilidades": "ADMINISTRAR EL SISTEMA",
                    "ver": "1",
                    "registrar": "1",
                    "editar": "1",
                    "borrar": "1",
                    "estado": "1",
                    "created_at": null,
                    "updated_at": null
                },
                {
                    "id": "2",
                    "descripcion": "USUARIO",
                    "responsabilidades": "",
                    "ver": "1",
                    "registrar": "1",
                    "editar": "1",
                    "borrar": "0",
                    "estado": "1",
                    "created_at": null,
                    "updated_at": null
                },
                {
                    "id": "3",
                    "descripcion": "VISITANTE",
                    "responsabilidades": "",
                    "ver": "1",
                    "registrar": "0",
                    "editar": "0",
                    "borrar": "0",
                    "estado": "1",
                    "created_at": null,
                    "updated_at": null
                }
            ]
        },
        {
            "nombre_tabla": "suministro",
            "valores": [
                {
                    "id": "1",
                    "codigo": "D001",
                    "descripcion": "Telefono zte",
                    "serial": "1153100101500488",
                    "estado": "1",
                    "created_at": null,
                    "updated_at": null
                },
                {
                    "id": "2",
                    "codigo": "D002",
                    "descripcion": "Telefono samsung",
                    "serial": "11531001015",
                    "estado": "1",
                    "created_at": null,
                    "updated_at": null
                },
                {
                    "id": "3",
                    "codigo": "D003",
                    "descripcion": "Tablet zte",
                    "serial": "11531001015223",
                    "estado": "1",
                    "created_at": null,
                    "updated_at": null
                },
                {
                    "id": "4",
                    "codigo": "D004",
                    "descripcion": "Tablet Samsung",
                    "serial": "34656345356",
                    "estado": "1",
                    "created_at": null,
                    "updated_at": null
                },
                {
                    "id": "5",
                    "codigo": "5a5f770a28d85",
                    "descripcion": "TAB A 6 06",
                    "serial": "A06",
                    "estado": "1",
                    "created_at": "2018-01-17 16:17:14",
                    "updated_at": "2018-01-17 16:29:10"
                }
            ]
        },
        {
            "nombre_tabla": "usuario",
            "valores": [
                {
                    "id": "1",
                    "dni": "12345",
                    "fecha_registro": "2018-01-16 19:46:39",
                    "fecha_nacimiento": "2018-10-10",
                    "fecha_ingreso": "2018-10-10",
                    "nombre": "Rafael",
                    "apellido": "Cardona",
                    "direccion": "",
                    "ciudad": "",
                    "telefono": "01234567890",
                    "avatar": "",
                    "rol_id": "1",
                    "cargo_id": "1",
                    "compania_id": "1",
                    "email": "admin@demo.com",
                    "password": "$2y$10$ZVaM8xred5oGZ6fHJmuTpu79gcM4u.KXgWt.fspdTZLuRaJiM.2m6",
                    "logged": "0",
                    "remember_token": null,
                    "created_at": null,
                    "updated_at": null
                },
                {
                    "id": "2",
                    "dni": "123456",
                    "fecha_registro": "2018-01-16 19:46:40",
                    "fecha_nacimiento": "2018-10-10",
                    "fecha_ingreso": "2018-10-10",
                    "nombre": "Isaac",
                    "apellido": "Rodriguez",
                    "direccion": "",
                    "ciudad": "",
                    "telefono": "01234567890",
                    "avatar": "",
                    "rol_id": "2",
                    "cargo_id": "2",
                    "compania_id": "1",
                    "email": "user@demo.com",
                    "password": "$2y$10$XBbM6xuN03AY0hT\/cx4QwuRySYK9fXtxYA0CQ3b0K5BNiDVsBW4rC",
                    "logged": "0",
                    "remember_token": null,
                    "created_at": null,
                    "updated_at": null
                },
                {
                    "id": "3",
                    "dni": "1234567",
                    "fecha_registro": "2018-01-16 19:46:41",
                    "fecha_nacimiento": "2018-10-10",
                    "fecha_ingreso": "2018-10-10",
                    "nombre": "David",
                    "apellido": "Hernandez",
                    "direccion": "",
                    "ciudad": "",
                    "telefono": "01234567890",
                    "avatar": "",
                    "rol_id": "2",
                    "cargo_id": "2",
                    "compania_id": "2",
                    "email": "user2@demo.com",
                    "password": "$2y$10$KM.lz96CXrNEIirofstX7epBn2wtIYLmen294KT5U9s\/.pZtYFEJC",
                    "logged": "0",
                    "remember_token": null,
                    "created_at": null,
                    "updated_at": null
                }
            ]
        }
    ]
}