{
    "timestamp": "2018-01-11 19:50:39",
    "dispositivo": "none",
    "id_usuario": "none",
    "tables": [
        {
            "nombre_tabla": "cargo",
            "valores": [
                {
                    "id": 1,
                    "compania_id": 1,
                    "descripcion": "SUPERVISOR",
                    "responsabilidades": "ADMINISTRAR EL SISTEMA",
                    "estado": "1",
                    "created_at": null,
                    "updated_at": null
                },
                {
                    "id": 2,
                    "compania_id": 1,
                    "descripcion": "GUARDIA",
                    "responsabilidades": "",
                    "estado": "1",
                    "created_at": null,
                    "updated_at": null
                },
                {
                    "id": 3,
                    "compania_id": 1,
                    "descripcion": "OBRERO",
                    "responsabilidades": "",
                    "estado": "1",
                    "created_at": null,
                    "updated_at": null
                },
                {
                    "id": 4,
                    "compania_id": 1,
                    "descripcion": "CREW",
                    "responsabilidades": "",
                    "estado": "1",
                    "created_at": null,
                    "updated_at": null
                },
                {
                    "id": 5,
                    "compania_id": 2,
                    "descripcion": "SUPERVISOR",
                    "responsabilidades": "ADMINISTRAR EL SISTEMA",
                    "estado": "1",
                    "created_at": null,
                    "updated_at": null
                },
                {
                    "id": 6,
                    "compania_id": 2,
                    "descripcion": "GUARDIA",
                    "responsabilidades": "",
                    "estado": "1",
                    "created_at": null,
                    "updated_at": null
                },
                {
                    "id": 7,
                    "compania_id": 2,
                    "descripcion": "OBRERO",
                    "responsabilidades": "",
                    "estado": "1",
                    "created_at": null,
                    "updated_at": null
                },
                {
                    "id": 8,
                    "compania_id": 2,
                    "descripcion": "CREW",
                    "responsabilidades": "",
                    "estado": "1",
                    "created_at": null,
                    "updated_at": null
                }
            ]
        },
        {
            "nombre_tabla": "compania",
            "valores": [
                {
                    "id": 1,
                    "nombre": "Compa\u00f1ia de prueba 1",
                    "codigo": "C001",
                    "ruc": "123456789",
                    "representante": "Nombre representante",
                    "estado": "1",
                    "created_at": null,
                    "updated_at": null
                },
                {
                    "id": 2,
                    "nombre": "Compa\u00f1ia de prueba 2",
                    "codigo": "C002",
                    "ruc": "1234567",
                    "representante": "Nombre representante",
                    "estado": "1",
                    "created_at": null,
                    "updated_at": null
                }
            ]
        },
        {
            "nombre_tabla": "dispositivo",
            "valores": [
                {
                    "id": 1,
                    "suministro_id": 1,
                    "marca": "ZTE",
                    "modelo": "Blade L2",
                    "sistema": "Android 4.4",
                    "serie": "14defe8d3e4e54f3",
                    "created_at": null,
                    "updated_at": null
                },
                {
                    "id": 2,
                    "suministro_id": 2,
                    "marca": "SAMSUNG",
                    "modelo": "GALAXY",
                    "sistema": "Android 4.0",
                    "serie": "13c9e36a0001cf5a",
                    "created_at": null,
                    "updated_at": null
                },
                {
                    "id": 3,
                    "suministro_id": 3,
                    "marca": "ZTE",
                    "modelo": "ZTE E10Q",
                    "sistema": "Android 4.4.2(API 19)",
                    "serie": "193ce40f51d2c14f",
                    "created_at": null,
                    "updated_at": null
                },
                {
                    "id": 4,
                    "suministro_id": 4,
                    "marca": "Desconocida",
                    "modelo": "Desconocido",
                    "sistema": "Desconocido",
                    "serie": "55c99e27d26f01cd",
                    "created_at": null,
                    "updated_at": null
                }
            ]
        },
        {
            "nombre_tabla": "modulo",
            "valores": [
                {
                    "id": 1,
                    "codigo": "OP001",
                    "descripcion": "CONTROL DE RADIOS",
                    "estado": 1,
                    "created_at": null,
                    "updated_at": null
                },
                {
                    "id": 2,
                    "codigo": "OP002",
                    "descripcion": "CONTROL DE AZUCAR",
                    "estado": 1,
                    "created_at": null,
                    "updated_at": null
                },
                {
                    "id": 3,
                    "codigo": "OP003",
                    "descripcion": "BITACORA DIGITAL",
                    "estado": 1,
                    "created_at": null,
                    "updated_at": null
                },
                {
                    "id": 4,
                    "codigo": "OP004",
                    "descripcion": "INFORME ESPECIAL",
                    "estado": 1,
                    "created_at": null,
                    "updated_at": null
                },
                {
                    "id": 5,
                    "codigo": "OP005",
                    "descripcion": "RELEVO DE GUARDIAS",
                    "estado": 1,
                    "created_at": null,
                    "updated_at": null
                },
                {
                    "id": 6,
                    "codigo": "OP006",
                    "descripcion": "REGISTRO DE USUARIOS",
                    "estado": 1,
                    "created_at": null,
                    "updated_at": null
                },
                {
                    "id": 7,
                    "codigo": "OP007",
                    "descripcion": "CAMBIO DE CLAVE",
                    "estado": 1,
                    "created_at": null,
                    "updated_at": null
                },
                {
                    "id": 8,
                    "codigo": "OP008",
                    "descripcion": "SESIONES DE USUARIOS",
                    "estado": 1,
                    "created_at": null,
                    "updated_at": null
                },
                {
                    "id": 9,
                    "codigo": "OP009",
                    "descripcion": "ASISTENCIAS DE EMPLEADOS",
                    "estado": 1,
                    "created_at": null,
                    "updated_at": null
                },
                {
                    "id": 10,
                    "codigo": "OP010",
                    "descripcion": "ASOCIAR ROSTRO",
                    "estado": 1,
                    "created_at": null,
                    "updated_at": null
                }
            ]
        },
        {
            "nombre_tabla": "modulousuario",
            "valores": [
                {
                    "id": 1,
                    "modulo_id": 1,
                    "usuario_id": 1,
                    "migrated": 0,
                    "migrated_timestamp": null,
                    "created_at": null,
                    "updated_at": null
                },
                {
                    "id": 2,
                    "modulo_id": 2,
                    "usuario_id": 1,
                    "migrated": 0,
                    "migrated_timestamp": null,
                    "created_at": null,
                    "updated_at": null
                },
                {
                    "id": 3,
                    "modulo_id": 3,
                    "usuario_id": 1,
                    "migrated": 0,
                    "migrated_timestamp": null,
                    "created_at": null,
                    "updated_at": null
                },
                {
                    "id": 4,
                    "modulo_id": 4,
                    "usuario_id": 1,
                    "migrated": 0,
                    "migrated_timestamp": null,
                    "created_at": null,
                    "updated_at": null
                },
                {
                    "id": 5,
                    "modulo_id": 5,
                    "usuario_id": 1,
                    "migrated": 0,
                    "migrated_timestamp": null,
                    "created_at": null,
                    "updated_at": null
                },
                {
                    "id": 6,
                    "modulo_id": 6,
                    "usuario_id": 1,
                    "migrated": 0,
                    "migrated_timestamp": null,
                    "created_at": null,
                    "updated_at": null
                },
                {
                    "id": 7,
                    "modulo_id": 7,
                    "usuario_id": 1,
                    "migrated": 0,
                    "migrated_timestamp": null,
                    "created_at": null,
                    "updated_at": null
                },
                {
                    "id": 8,
                    "modulo_id": 8,
                    "usuario_id": 1,
                    "migrated": 0,
                    "migrated_timestamp": null,
                    "created_at": null,
                    "updated_at": null
                },
                {
                    "id": 9,
                    "modulo_id": 9,
                    "usuario_id": 1,
                    "migrated": 0,
                    "migrated_timestamp": null,
                    "created_at": null,
                    "updated_at": null
                },
                {
                    "id": 10,
                    "modulo_id": 10,
                    "usuario_id": 1,
                    "migrated": 0,
                    "migrated_timestamp": null,
                    "created_at": null,
                    "updated_at": null
                },
                {
                    "id": 11,
                    "modulo_id": 1,
                    "usuario_id": 2,
                    "migrated": 0,
                    "migrated_timestamp": null,
                    "created_at": null,
                    "updated_at": null
                },
                {
                    "id": 12,
                    "modulo_id": 2,
                    "usuario_id": 2,
                    "migrated": 0,
                    "migrated_timestamp": null,
                    "created_at": null,
                    "updated_at": null
                },
                {
                    "id": 13,
                    "modulo_id": 3,
                    "usuario_id": 2,
                    "migrated": 0,
                    "migrated_timestamp": null,
                    "created_at": null,
                    "updated_at": null
                },
                {
                    "id": 14,
                    "modulo_id": 4,
                    "usuario_id": 2,
                    "migrated": 0,
                    "migrated_timestamp": null,
                    "created_at": null,
                    "updated_at": null
                },
                {
                    "id": 15,
                    "modulo_id": 5,
                    "usuario_id": 2,
                    "migrated": 0,
                    "migrated_timestamp": null,
                    "created_at": null,
                    "updated_at": null
                },
                {
                    "id": 16,
                    "modulo_id": 6,
                    "usuario_id": 2,
                    "migrated": 0,
                    "migrated_timestamp": null,
                    "created_at": null,
                    "updated_at": null
                },
                {
                    "id": 17,
                    "modulo_id": 1,
                    "usuario_id": 3,
                    "migrated": 0,
                    "migrated_timestamp": null,
                    "created_at": null,
                    "updated_at": null
                },
                {
                    "id": 18,
                    "modulo_id": 2,
                    "usuario_id": 3,
                    "migrated": 0,
                    "migrated_timestamp": null,
                    "created_at": null,
                    "updated_at": null
                },
                {
                    "id": 19,
                    "modulo_id": 3,
                    "usuario_id": 3,
                    "migrated": 0,
                    "migrated_timestamp": null,
                    "created_at": null,
                    "updated_at": null
                },
                {
                    "id": 20,
                    "modulo_id": 4,
                    "usuario_id": 3,
                    "migrated": 0,
                    "migrated_timestamp": null,
                    "created_at": null,
                    "updated_at": null
                },
                {
                    "id": 21,
                    "modulo_id": 5,
                    "usuario_id": 3,
                    "migrated": 0,
                    "migrated_timestamp": null,
                    "created_at": null,
                    "updated_at": null
                }
            ]
        },
        {
            "nombre_tabla": "puesto",
            "valores": [
                {
                    "id": 1,
                    "nombre": "Puesto de prueba 1",
                    "descripcion": "descripcion aqui",
                    "nominativo": "nominativo 1 aqui",
                    "compania_id": 1,
                    "estado": "1",
                    "created_at": null,
                    "updated_at": null
                },
                {
                    "id": 2,
                    "nombre": "Puesto de prueba 2",
                    "descripcion": "descripcion aqui",
                    "nominativo": "nominativo 2 aqui",
                    "compania_id": 1,
                    "estado": "1",
                    "created_at": null,
                    "updated_at": null
                },
                {
                    "id": 3,
                    "nombre": "Puesto de prueba 3",
                    "descripcion": "descripcion aqui",
                    "nominativo": "nominativo 3 aqui",
                    "compania_id": 2,
                    "estado": "1",
                    "created_at": null,
                    "updated_at": null
                },
                {
                    "id": 4,
                    "nombre": "Puesto de prueba 4",
                    "descripcion": "descripcion aqui",
                    "nominativo": "nominativo 4 aqui",
                    "compania_id": 2,
                    "estado": "1",
                    "created_at": null,
                    "updated_at": null
                }
            ]
        },
        {
            "nombre_tabla": "puesto_suministro",
            "valores": [
                {
                    "id": 1,
                    "suministro_id": 1,
                    "puesto_id": 1,
                    "cantidad": 1,
                    "created_at": null,
                    "updated_at": null
                },
                {
                    "id": 2,
                    "suministro_id": 2,
                    "puesto_id": 2,
                    "cantidad": 1,
                    "created_at": null,
                    "updated_at": null
                },
                {
                    "id": 3,
                    "suministro_id": 3,
                    "puesto_id": 3,
                    "cantidad": 1,
                    "created_at": null,
                    "updated_at": null
                },
                {
                    "id": 4,
                    "suministro_id": 4,
                    "puesto_id": 4,
                    "cantidad": 1,
                    "created_at": null,
                    "updated_at": null
                }
            ]
        },
        {
            "nombre_tabla": "rol",
            "valores": [
                {
                    "id": 1,
                    "descripcion": "ADMINISTRADOR",
                    "responsabilidades": "ADMINISTRAR EL SISTEMA",
                    "ver": 1,
                    "registrar": 1,
                    "editar": 1,
                    "borrar": 1,
                    "estado": "1",
                    "created_at": null,
                    "updated_at": null
                },
                {
                    "id": 2,
                    "descripcion": "USUARIO",
                    "responsabilidades": "",
                    "ver": 1,
                    "registrar": 1,
                    "editar": 1,
                    "borrar": 0,
                    "estado": "1",
                    "created_at": null,
                    "updated_at": null
                },
                {
                    "id": 3,
                    "descripcion": "VISITANTE",
                    "responsabilidades": "",
                    "ver": 1,
                    "registrar": 0,
                    "editar": 0,
                    "borrar": 0,
                    "estado": "1",
                    "created_at": null,
                    "updated_at": null
                }
            ]
        },
        {
            "nombre_tabla": "suministro",
            "valores": [
                {
                    "id": 1,
                    "codigo": "D001",
                    "descripcion": "Telefono zte",
                    "serial": "1153100101500488",
                    "estado": "1",
                    "created_at": null,
                    "updated_at": null
                },
                {
                    "id": 2,
                    "codigo": "D002",
                    "descripcion": "Telefono samsung",
                    "serial": "11531001015",
                    "estado": "1",
                    "created_at": null,
                    "updated_at": null
                },
                {
                    "id": 3,
                    "codigo": "D003",
                    "descripcion": "Tablet zte",
                    "serial": "11531001015223",
                    "estado": "1",
                    "created_at": null,
                    "updated_at": null
                },
                {
                    "id": 4,
                    "codigo": "D004",
                    "descripcion": "Tablet Samsung",
                    "serial": "34656345356",
                    "estado": "1",
                    "created_at": null,
                    "updated_at": null
                }
            ]
        },
        {
            "nombre_tabla": "usuario",
            "valores": [
                {
                    "id": 1,
                    "dni": 12345,
                    "fecha_registro": "2018-01-11 15:42:58",
                    "fecha_nacimiento": "2018-10-10",
                    "fecha_ingreso": "2018-10-10",
                    "nombre": "Rafael",
                    "apellido": "Cardona",
                    "direccion": "",
                    "ciudad": "",
                    "telefono": 1234567890,
                    "avatar": "",
                    "rol_id": 1,
                    "cargo_id": 1,
                    "compania_id": 1,
                    "email": "admin@demo.com",
                    "password": "$2y$10$iE2IV1cgPzUz8Rs0syMgleYZBUWQv5aT5THZyGb9UsAmmQxggDHs.",
                    "logged": "0",
                    "migrated": "0",
                    "migrated_timestamp": null,
                    "remember_token": null,
                    "created_at": null,
                    "updated_at": null
                },
                {
                    "id": 2,
                    "dni": 123456,
                    "fecha_registro": "2018-01-11 15:42:59",
                    "fecha_nacimiento": "2018-10-10",
                    "fecha_ingreso": "2018-10-10",
                    "nombre": "Isaac",
                    "apellido": "Rodriguez",
                    "direccion": "",
                    "ciudad": "",
                    "telefono": 1234567890,
                    "avatar": "",
                    "rol_id": 2,
                    "cargo_id": 2,
                    "compania_id": 1,
                    "email": "user@demo.com",
                    "password": "$2y$10$sCTf.jh6NXYzT.jKMXgYkuNcDHMEU3FcQXO0RYFthyhdP0PARWJX2",
                    "logged": "0",
                    "migrated": "0",
                    "migrated_timestamp": null,
                    "remember_token": null,
                    "created_at": null,
                    "updated_at": null
                },
                {
                    "id": 3,
                    "dni": 1234567,
                    "fecha_registro": "2018-01-11 15:42:59",
                    "fecha_nacimiento": "2018-10-10",
                    "fecha_ingreso": "2018-10-10",
                    "nombre": "David",
                    "apellido": "Hernandez",
                    "direccion": "",
                    "ciudad": "",
                    "telefono": 1234567890,
                    "avatar": "",
                    "rol_id": 2,
                    "cargo_id": 2,
                    "compania_id": 2,
                    "email": "user2@demo.com",
                    "password": "$2y$10$.nzu3xkQLX1HMBhbDv9Px.mPo50ytxKHVIQ\/csdw0U5z\/kE6G.Yg2",
                    "logged": "0",
                    "migrated": "0",
                    "migrated_timestamp": null,
                    "remember_token": null,
                    "created_at": null,
                    "updated_at": null
                }
            ]
        }
    ]
}