{
    "timestamp": "2018-01-19 13:29:22",
    "dispositivo": "none",
    "id_usuario": "none",
    "tables": [
        {
            "nombre_tabla": "cargo",
            "valores": [
                {
                    "id": "1",
                    "compania_id": "1",
                    "descripcion": "SUPERVISOR",
                    "responsabilidades": "ADMINISTRAR EL SISTEMA",
                    "estado": "1",
                    "created_at": null,
                    "updated_at": null
                },
                {
                    "id": "2",
                    "compania_id": "1",
                    "descripcion": "GUARDIA",
                    "responsabilidades": "",
                    "estado": "1",
                    "created_at": null,
                    "updated_at": null
                },
                {
                    "id": "3",
                    "compania_id": "1",
                    "descripcion": "OBRERO",
                    "responsabilidades": "",
                    "estado": "1",
                    "created_at": null,
                    "updated_at": null
                },
                {
                    "id": "4",
                    "compania_id": "1",
                    "descripcion": "CREW",
                    "responsabilidades": "",
                    "estado": "1",
                    "created_at": null,
                    "updated_at": null
                },
                {
                    "id": "5",
                    "compania_id": "2",
                    "descripcion": "SUPERVISOR",
                    "responsabilidades": "ADMINISTRAR EL SISTEMA",
                    "estado": "1",
                    "created_at": null,
                    "updated_at": null
                },
                {
                    "id": "6",
                    "compania_id": "2",
                    "descripcion": "GUARDIA",
                    "responsabilidades": "",
                    "estado": "1",
                    "created_at": null,
                    "updated_at": null
                },
                {
                    "id": "7",
                    "compania_id": "2",
                    "descripcion": "OBRERO",
                    "responsabilidades": "",
                    "estado": "1",
                    "created_at": null,
                    "updated_at": null
                },
                {
                    "id": "8",
                    "compania_id": "2",
                    "descripcion": "CREW",
                    "responsabilidades": "",
                    "estado": "1",
                    "created_at": null,
                    "updated_at": null
                }
            ]
        },
        {
            "nombre_tabla": "compania",
            "valores": [
                {
                    "id": "1",
                    "nombre": "LA MORITA CA",
                    "codigo": "C001",
                    "ruc": "98989782",
                    "representante": "DAVID RODRIGUEZ",
                    "estado": "1",
                    "created_at": null,
                    "updated_at": "2018-01-18 17:22:53"
                },
                {
                    "id": "2",
                    "nombre": "REFINADORA ESPERQUE CA",
                    "codigo": "C002",
                    "ruc": "1234567",
                    "representante": "MANUEL RODRIGUEZ",
                    "estado": "1",
                    "created_at": null,
                    "updated_at": "2018-01-18 17:23:39"
                },
                {
                    "id": "4",
                    "nombre": "EMPAQUETADORA SANCHEZ CA",
                    "codigo": "5a60d8488576f",
                    "ruc": "999899766",
                    "representante": "JUAN SANCHEZ",
                    "estado": "1",
                    "created_at": "2018-01-18 17:24:24",
                    "updated_at": "2018-01-18 17:24:24"
                }
            ]
        },
        {
            "nombre_tabla": "dispositivo",
            "valores": [
                {
                    "id": "1",
                    "suministro_id": "1",
                    "marca": "ZTE",
                    "modelo": "BLADE L2",
                    "sistema": "4.4.2",
                    "serie": "14defe8d3e4e54f3",
                    "created_at": "2018-01-18 17:33:58",
                    "updated_at": "2018-01-18 17:33:58"
                }
            ]
        },
        {
            "nombre_tabla": "modulo",
            "valores": [
                {
                    "id": "1",
                    "codigo": "OP001",
                    "descripcion": "CONTROL DE RADIOS",
                    "estado": "1",
                    "created_at": null,
                    "updated_at": null
                },
                {
                    "id": "2",
                    "codigo": "OP002",
                    "descripcion": "CONTROL DE AZUCAR",
                    "estado": "1",
                    "created_at": null,
                    "updated_at": null
                },
                {
                    "id": "3",
                    "codigo": "OP003",
                    "descripcion": "BITACORA DIGITAL",
                    "estado": "1",
                    "created_at": null,
                    "updated_at": null
                },
                {
                    "id": "4",
                    "codigo": "OP004",
                    "descripcion": "INFORME ESPECIAL",
                    "estado": "1",
                    "created_at": null,
                    "updated_at": null
                },
                {
                    "id": "5",
                    "codigo": "OP005",
                    "descripcion": "RELEVO DE GUARDIAS",
                    "estado": "1",
                    "created_at": null,
                    "updated_at": null
                },
                {
                    "id": "6",
                    "codigo": "OP006",
                    "descripcion": "REGISTRO DE USUARIOS",
                    "estado": "0",
                    "created_at": null,
                    "updated_at": null
                },
                {
                    "id": "7",
                    "codigo": "OP007",
                    "descripcion": "CAMBIO DE CLAVE",
                    "estado": "0",
                    "created_at": null,
                    "updated_at": null
                },
                {
                    "id": "8",
                    "codigo": "OP008",
                    "descripcion": "ASISTENCIAS DE EMPLEADOS",
                    "estado": "1",
                    "created_at": null,
                    "updated_at": null
                },
                {
                    "id": "9",
                    "codigo": "OP009",
                    "descripcion": "SESIONES DE USUARIOS",
                    "estado": "1",
                    "created_at": null,
                    "updated_at": null
                },
                {
                    "id": "10",
                    "codigo": "OP010",
                    "descripcion": "ASOCIAR ROSTRO",
                    "estado": "1",
                    "created_at": null,
                    "updated_at": null
                }
            ]
        },
        {
            "nombre_tabla": "modulousuario",
            "valores": [
                {
                    "id": "1",
                    "modulo_id": "1",
                    "usuario_id": "1",
                    "created_at": "2018-01-18 17:52:03",
                    "updated_at": "2018-01-18 17:52:03"
                },
                {
                    "id": "2",
                    "modulo_id": "2",
                    "usuario_id": "1",
                    "created_at": "2018-01-18 17:52:03",
                    "updated_at": "2018-01-18 17:52:03"
                },
                {
                    "id": "3",
                    "modulo_id": "3",
                    "usuario_id": "1",
                    "created_at": "2018-01-18 17:52:03",
                    "updated_at": "2018-01-18 17:52:03"
                },
                {
                    "id": "4",
                    "modulo_id": "4",
                    "usuario_id": "1",
                    "created_at": "2018-01-18 17:52:03",
                    "updated_at": "2018-01-18 17:52:03"
                },
                {
                    "id": "5",
                    "modulo_id": "5",
                    "usuario_id": "1",
                    "created_at": "2018-01-18 17:52:03",
                    "updated_at": "2018-01-18 17:52:03"
                },
                {
                    "id": "6",
                    "modulo_id": "8",
                    "usuario_id": "1",
                    "created_at": "2018-01-18 17:52:03",
                    "updated_at": "2018-01-18 17:52:03"
                },
                {
                    "id": "7",
                    "modulo_id": "9",
                    "usuario_id": "1",
                    "created_at": "2018-01-18 17:52:03",
                    "updated_at": "2018-01-18 17:52:03"
                },
                {
                    "id": "8",
                    "modulo_id": "10",
                    "usuario_id": "1",
                    "created_at": "2018-01-18 17:52:03",
                    "updated_at": "2018-01-18 17:52:03"
                }
            ]
        },
        {
            "nombre_tabla": "puesto",
            "valores": [
                {
                    "id": "1",
                    "nombre": "ENTRADA PRINCIPAL",
                    "descripcion": "PUNTO DE CONTROL PRINCIPAL",
                    "nominativo": "ALCON 1",
                    "compania_id": "4",
                    "estado": "1",
                    "created_at": "2018-01-18 17:25:17",
                    "updated_at": "2018-01-18 17:25:17"
                }
            ]
        },
        {
            "nombre_tabla": "puesto_suministro",
            "valores": [
                {
                    "id": "1",
                    "suministro_id": "1",
                    "puesto_id": "1",
                    "cantidad": "1",
                    "created_at": "2018-01-18 17:34:45",
                    "updated_at": "2018-01-18 17:34:45"
                }
            ]
        },
        {
            "nombre_tabla": "rol",
            "valores": [
                {
                    "id": "1",
                    "descripcion": "ADMINISTRADOR",
                    "responsabilidades": "ADMINISTRAR EL SISTEMA",
                    "ver": "1",
                    "registrar": "1",
                    "editar": "1",
                    "borrar": "1",
                    "estado": "1",
                    "created_at": null,
                    "updated_at": null
                },
                {
                    "id": "2",
                    "descripcion": "USUARIO",
                    "responsabilidades": "",
                    "ver": "1",
                    "registrar": "1",
                    "editar": "1",
                    "borrar": "0",
                    "estado": "1",
                    "created_at": null,
                    "updated_at": null
                },
                {
                    "id": "3",
                    "descripcion": "VISITANTE",
                    "responsabilidades": "",
                    "ver": "1",
                    "registrar": "0",
                    "editar": "0",
                    "borrar": "0",
                    "estado": "1",
                    "created_at": null,
                    "updated_at": null
                }
            ]
        },
        {
            "nombre_tabla": "suministro",
            "valores": [
                {
                    "id": "1",
                    "codigo": "5a60da86a62d8",
                    "descripcion": "TELEFONO ZTE",
                    "serial": "123Y363H3GJ363",
                    "estado": "1",
                    "created_at": "2018-01-18 17:33:58",
                    "updated_at": "2018-01-18 17:33:58"
                }
            ]
        },
        {
            "nombre_tabla": "usuario",
            "valores": [
                {
                    "id": "1",
                    "dni": "12345",
                    "fecha_registro": "2018-01-18 02:27:19",
                    "fecha_nacimiento": "1990-10-10",
                    "fecha_ingreso": "2018-10-10",
                    "nombre": "RAFAEL",
                    "apellido": "CARDONA",
                    "direccion": "",
                    "ciudad": "",
                    "telefono": "01234567890",
                    "avatar": "",
                    "rol_id": "1",
                    "cargo_id": "1",
                    "compania_id": "1",
                    "email": "ADMIN@DEMO.COM",
                    "password": "$2y$10$at4kwJUO7vl6.nni.QiLNu0dqcGIShaArGPXrSuw8S\/PGP1G3lJL2",
                    "logged": "0",
                    "remember_token": "nTPo0Q8sE7TKfPFxUxOJdlNAcc08REO0cp1FCbjJCPGtymT8cbFLB9A6CsEE",
                    "created_at": null,
                    "updated_at": "2018-01-18 17:52:03"
                }
            ]
        }
    ]
}